%YAML 1.1
%TAG !u! tag:unity3d.com,2011:
--- !u!114 &11400000
MonoBehaviour:
  m_ObjectHideFlags: 0
  m_CorrespondingSourceObject: {fileID: 0}
  m_PrefabInternal: {fileID: 0}
  m_GameObject: {fileID: 0}
  m_Enabled: 1
  m_EditorHideFlags: 0
  m_Script: {fileID: 11500000, guid: 2c7f7bb2c4caa8a47875c27f92cc16b2, type: 3}
  m_Name: Hamburger
  m_EditorClassIdentifier: 
  name: Hamburger
  icon: {fileID: 21300000, guid: 70c93ee3f51f7bb46b4b0a251e3f7a6d, type: 3}
  damage: 0
  health: 15
  speed: 0.3
  price: 50
