%YAML 1.1
%TAG !u! tag:unity3d.com,2011:
--- !u!74 &7400000
AnimationClip:
  m_ObjectHideFlags: 0
  m_CorrespondingSourceObject: {fileID: 0}
  m_PrefabInternal: {fileID: 0}
  m_Name: die_anim
  serializedVersion: 6
  m_Legacy: 0
  m_Compressed: 0
  m_UseHighQualityCurve: 1
  m_RotationCurves: []
  m_CompressedRotationCurves: []
  m_EulerCurves: []
  m_PositionCurves: []
  m_ScaleCurves: []
  m_FloatCurves: []
  m_PPtrCurves:
  - curve:
    - time: 0
      value: {fileID: 21300000, guid: 9a115a4ec4c04ea44b348d3be4023672, type: 3}
    - time: 0.016666668
      value: {fileID: 21300000, guid: ae48b07e11f23194bb33d12f33b3b5e1, type: 3}
    - time: 0.033333335
      value: {fileID: 21300000, guid: f07e8d85ef4b06f4587c08685d86f6f1, type: 3}
    - time: 0.05
      value: {fileID: 21300000, guid: e12bc3f26261e2d46830b7e9c48f14cc, type: 3}
    - time: 0.06666667
      value: {fileID: 21300000, guid: 2b68ea0831147934aa2c35d6d8631a7e, type: 3}
    - time: 0.083333336
      value: {fileID: 21300000, guid: 21e69ff70f5887b41a6ac501a6ac9d75, type: 3}
    - time: 0.1
      value: {fileID: 21300000, guid: afb6d4db1c6d6d74cb887f3585931365, type: 3}
    - time: 0.11666667
      value: {fileID: 21300000, guid: bf176527284b84548bea0f6301b3d2f2, type: 3}
    - time: 0.13333334
      value: {fileID: 21300000, guid: b8526362a0f01a942a3147c48f9cd203, type: 3}
    - time: 0.15
      value: {fileID: 21300000, guid: b6fb2c66ee9352646bb2b2ed2eea0f4a, type: 3}
    - time: 0.16666667
      value: {fileID: 21300000, guid: 4c255d6767405234dad9518dd9afe147, type: 3}
    - time: 0.18333334
      value: {fileID: 21300000, guid: 1cbcb26f2758fda46ba1a1890c61d6d6, type: 3}
    - time: 0.2
      value: {fileID: 21300000, guid: 4ae616274d75d804e8a8709adb5765d4, type: 3}
    - time: 0.21666667
      value: {fileID: 21300000, guid: 0355394c399c6104dbbbafb82642890b, type: 3}
    - time: 0.23333333
      value: {fileID: 21300000, guid: 1bd90ebc55a0c8c46b0eb806cc754777, type: 3}
    - time: 0.25
      value: {fileID: 21300000, guid: 633b2bb26c41a5845b98dd97e27c5374, type: 3}
    - time: 0.26666668
      value: {fileID: 21300000, guid: d61676524ebfaf54889ad4c99f774890, type: 3}
    - time: 0.28333336
      value: {fileID: 21300000, guid: b13fbd2e12f764c429e3678714aab4c8, type: 3}
    - time: 0.30000004
      value: {fileID: 21300000, guid: 8af1f70a08a376f4c92691d93fee810c, type: 3}
    - time: 0.31666672
      value: {fileID: 21300000, guid: bc924d99b1f80c44f963819609f30ab9, type: 3}
    attribute: m_Sprite
    path: 
    classID: 212
    script: {fileID: 0}
  m_SampleRate: 60
  m_WrapMode: 0
  m_Bounds:
    m_Center: {x: 0, y: 0, z: 0}
    m_Extent: {x: 0, y: 0, z: 0}
  m_ClipBindingConstant:
    genericBindings:
    - serializedVersion: 2
      path: 0
      attribute: 0
      script: {fileID: 0}
      typeID: 212
      customType: 23
      isPPtrCurve: 1
    pptrCurveMapping:
    - {fileID: 21300000, guid: 9a115a4ec4c04ea44b348d3be4023672, type: 3}
    - {fileID: 21300000, guid: ae48b07e11f23194bb33d12f33b3b5e1, type: 3}
    - {fileID: 21300000, guid: f07e8d85ef4b06f4587c08685d86f6f1, type: 3}
    - {fileID: 21300000, guid: e12bc3f26261e2d46830b7e9c48f14cc, type: 3}
    - {fileID: 21300000, guid: 2b68ea0831147934aa2c35d6d8631a7e, type: 3}
    - {fileID: 21300000, guid: 21e69ff70f5887b41a6ac501a6ac9d75, type: 3}
    - {fileID: 21300000, guid: afb6d4db1c6d6d74cb887f3585931365, type: 3}
    - {fileID: 21300000, guid: bf176527284b84548bea0f6301b3d2f2, type: 3}
    - {fileID: 21300000, guid: b8526362a0f01a942a3147c48f9cd203, type: 3}
    - {fileID: 21300000, guid: b6fb2c66ee9352646bb2b2ed2eea0f4a, type: 3}
    - {fileID: 21300000, guid: 4c255d6767405234dad9518dd9afe147, type: 3}
    - {fileID: 21300000, guid: 1cbcb26f2758fda46ba1a1890c61d6d6, type: 3}
    - {fileID: 21300000, guid: 4ae616274d75d804e8a8709adb5765d4, type: 3}
    - {fileID: 21300000, guid: 0355394c399c6104dbbbafb82642890b, type: 3}
    - {fileID: 21300000, guid: 1bd90ebc55a0c8c46b0eb806cc754777, type: 3}
    - {fileID: 21300000, guid: 633b2bb26c41a5845b98dd97e27c5374, type: 3}
    - {fileID: 21300000, guid: d61676524ebfaf54889ad4c99f774890, type: 3}
    - {fileID: 21300000, guid: b13fbd2e12f764c429e3678714aab4c8, type: 3}
    - {fileID: 21300000, guid: 8af1f70a08a376f4c92691d93fee810c, type: 3}
    - {fileID: 21300000, guid: bc924d99b1f80c44f963819609f30ab9, type: 3}
  m_AnimationClipSettings:
    serializedVersion: 2
    m_AdditiveReferencePoseClip: {fileID: 0}
    m_AdditiveReferencePoseTime: 0
    m_StartTime: 0
    m_StopTime: 0.3333334
    m_OrientationOffsetY: 0
    m_Level: 0
    m_CycleOffset: 0
    m_HasAdditiveReferencePose: 0
    m_LoopTime: 0
    m_LoopBlend: 0
    m_LoopBlendOrientation: 0
    m_LoopBlendPositionY: 0
    m_LoopBlendPositionXZ: 0
    m_KeepOriginalOrientation: 0
    m_KeepOriginalPositionY: 1
    m_KeepOriginalPositionXZ: 0
    m_HeightFromFeet: 0
    m_Mirror: 0
  m_EditorCurves: []
  m_EulerEditorCurves: []
  m_HasGenericRootTransform: 0
  m_HasMotionFloatCurves: 0
  m_GenerateMotionCurves: 0
  m_Events:
  - time: 0.31666666
    functionName: DieFalse
    data: 
    objectReferenceParameter: {fileID: 0}
    floatParameter: 0
    intParameter: 0
    messageOptions: 0
