%YAML 1.1
%TAG !u! tag:unity3d.com,2011:
--- !u!1001 &100100000
Prefab:
  m_ObjectHideFlags: 1
  serializedVersion: 2
  m_Modification:
    m_TransformParent: {fileID: 0}
    m_Modifications: []
    m_RemovedComponents: []
  m_SourcePrefab: {fileID: 0}
  m_RootGameObject: {fileID: 1650843991993752}
  m_IsPrefabAsset: 1
--- !u!1 &1650843991993752
GameObject:
  m_ObjectHideFlags: 0
  m_CorrespondingSourceObject: {fileID: 0}
  m_PrefabInternal: {fileID: 100100000}
  serializedVersion: 6
  m_Component:
  - component: {fileID: 4675277581207480}
  - component: {fileID: 212519461320260604}
  - component: {fileID: 60859913914452480}
  m_Layer: 8
  m_Name: platform
  m_TagString: Untagged
  m_Icon: {fileID: 0}
  m_NavMeshLayer: 0
  m_StaticEditorFlags: 0
  m_IsActive: 1
--- !u!4 &4675277581207480
Transform:
  m_ObjectHideFlags: 1
  m_CorrespondingSourceObject: {fileID: 0}
  m_PrefabInternal: {fileID: 100100000}
  m_GameObject: {fileID: 1650843991993752}
  m_LocalRotation: {x: -0, y: -0, z: -0, w: 1}
  m_LocalPosition: {x: -14.90789, y: -5.479044, z: 0.055319488}
  m_LocalScale: {x: 1, y: 1, z: 1}
  m_Children: []
  m_Father: {fileID: 0}
  m_RootOrder: 0
  m_LocalEulerAnglesHint: {x: 0, y: 0, z: 0}
--- !u!60 &60859913914452480
PolygonCollider2D:
  m_ObjectHideFlags: 1
  m_CorrespondingSourceObject: {fileID: 0}
  m_PrefabInternal: {fileID: 100100000}
  m_GameObject: {fileID: 1650843991993752}
  m_Enabled: 1
  m_Density: 1
  m_Material: {fileID: 6200000, guid: 23f9162cb6ab9bf4d99db8c569cc963a, type: 2}
  m_IsTrigger: 0
  m_UsedByEffector: 0
  m_UsedByComposite: 0
  m_Offset: {x: 0, y: 0}
  m_SpriteTilingProperty:
    border: {x: 0, y: 0, z: 0, w: 0}
    pivot: {x: 0.5, y: 0.5}
    oldSize: {x: 5, y: 1.29}
    newSize: {x: 5, y: 1.29}
    adaptiveTilingThreshold: 0.5
    drawMode: 0
    adaptiveTiling: 0
  m_AutoTiling: 0
  m_Points:
    m_Paths:
    - - {x: 0.88, y: -0.555}
      - {x: 1.02, y: -0.555}
      - {x: 1.04, y: -0.59499997}
      - {x: 1.14, y: -0.59499997}
      - {x: 1.27, y: -0.575}
      - {x: 1.56, y: -0.45499998}
      - {x: 1.5799999, y: -0.435}
      - {x: 1.9, y: -0.435}
      - {x: 1.92, y: -0.415}
      - {x: 2.03, y: -0.285}
      - {x: 2.33, y: 0.21499999}
      - {x: 2.5, y: 0.185}
      - {x: 2.5, y: 0.295}
      - {x: 2.33, y: 0.435}
      - {x: 2.18, y: 0.525}
      - {x: -2.22, y: 0.525}
      - {x: -2.28, y: 0.505}
      - {x: -2.44, y: 0.42499998}
      - {x: -2.44, y: 0.36499998}
      - {x: -2.4299998, y: 0.345}
      - {x: -2.4099998, y: 0.275}
      - {x: -2.32, y: 0.185}
      - {x: -2.32, y: 0.074999996}
      - {x: -2.27, y: -0.085}
      - {x: -2.23, y: -0.13499999}
      - {x: -2.06, y: -0.195}
      - {x: -1.99, y: -0.255}
      - {x: -1.8199999, y: -0.355}
      - {x: -1.67, y: -0.355}
      - {x: -1.61, y: -0.405}
      - {x: -1.49, y: -0.465}
      - {x: -1.37, y: -0.505}
      - {x: -1.28, y: -0.515}
      - {x: -1.0799999, y: -0.515}
      - {x: -0.87, y: -0.53499997}
      - {x: -0.65, y: -0.48499998}
      - {x: -0.39999998, y: -0.415}
      - {x: -0.26, y: -0.435}
      - {x: -0.08, y: -0.445}
      - {x: 0.11, y: -0.515}
      - {x: 0.22, y: -0.575}
      - {x: 0.32, y: -0.59499997}
      - {x: 0.37, y: -0.59499997}
      - {x: 0.57, y: -0.545}
      - {x: 0.71999997, y: -0.475}
      - {x: 0.82, y: -0.53499997}
--- !u!212 &212519461320260604
SpriteRenderer:
  m_ObjectHideFlags: 1
  m_CorrespondingSourceObject: {fileID: 0}
  m_PrefabInternal: {fileID: 100100000}
  m_GameObject: {fileID: 1650843991993752}
  m_Enabled: 1
  m_CastShadows: 0
  m_ReceiveShadows: 0
  m_DynamicOccludee: 1
  m_MotionVectors: 1
  m_LightProbeUsage: 1
  m_ReflectionProbeUsage: 1
  m_RenderingLayerMask: 4294967295
  m_Materials:
  - {fileID: 10754, guid: 0000000000000000f000000000000000, type: 0}
  m_StaticBatchInfo:
    firstSubMesh: 0
    subMeshCount: 0
  m_StaticBatchRoot: {fileID: 0}
  m_ProbeAnchor: {fileID: 0}
  m_LightProbeVolumeOverride: {fileID: 0}
  m_ScaleInLightmap: 1
  m_PreserveUVs: 0
  m_IgnoreNormalsForChartDetection: 0
  m_ImportantGI: 0
  m_StitchLightmapSeams: 0
  m_SelectedEditorRenderState: 0
  m_MinimumChartSize: 4
  m_AutoUVMaxDistance: 0.5
  m_AutoUVMaxAngle: 89
  m_LightmapParameters: {fileID: 0}
  m_SortingLayerID: 0
  m_SortingLayer: 0
  m_SortingOrder: 0
  m_Sprite: {fileID: 21300000, guid: c6f8de17103ce4242b434ff2e8356bd9, type: 3}
  m_Color: {r: 1, g: 1, b: 1, a: 1}
  m_FlipX: 0
  m_FlipY: 0
  m_DrawMode: 0
  m_Size: {x: 5, y: 1.29}
  m_AdaptiveModeThreshold: 0.5
  m_SpriteTileMode: 0
  m_WasSpriteAssigned: 1
  m_MaskInteraction: 0
  m_SpriteSortPoint: 0
