%YAML 1.1
%TAG !u! tag:unity3d.com,2011:
--- !u!74 &7400000
AnimationClip:
  m_ObjectHideFlags: 0
  m_CorrespondingSourceObject: {fileID: 0}
  m_PrefabInternal: {fileID: 0}
  m_Name: walk_anim
  serializedVersion: 6
  m_Legacy: 0
  m_Compressed: 0
  m_UseHighQualityCurve: 1
  m_RotationCurves: []
  m_CompressedRotationCurves: []
  m_EulerCurves: []
  m_PositionCurves: []
  m_ScaleCurves: []
  m_FloatCurves: []
  m_PPtrCurves:
  - curve:
    - time: 0
      value: {fileID: 21300000, guid: 4dd53f03c79526346b36a05004949f1b, type: 3}
    - time: 0.016666668
      value: {fileID: 21300000, guid: 8597e575ae759de4791733e57dece8eb, type: 3}
    - time: 0.033333335
      value: {fileID: 21300000, guid: 6f4bda72e2cb2c0448e048bee42f0cfb, type: 3}
    - time: 0.05
      value: {fileID: 21300000, guid: bcaafcf6360048d45bbd91574ab1bb2e, type: 3}
    - time: 0.06666667
      value: {fileID: 21300000, guid: ca2c2fc34dc8bd9498fa080623d10dd6, type: 3}
    - time: 0.083333336
      value: {fileID: 21300000, guid: 2cece98e8b45c2346a85697e5ae36606, type: 3}
    - time: 0.1
      value: {fileID: 21300000, guid: 6057c1f2ab1dde64287e7ee97a70eeb6, type: 3}
    - time: 0.11666667
      value: {fileID: 21300000, guid: e767fb27a6da0df4c9bb7b92fc31789f, type: 3}
    - time: 0.13333334
      value: {fileID: 21300000, guid: f12982908fa982d4aa28b8de75ed0a50, type: 3}
    - time: 0.15
      value: {fileID: 21300000, guid: 7c1942d588fecf04093ff3db6bbc5187, type: 3}
    - time: 0.16666667
      value: {fileID: 21300000, guid: 1c298dd1f481f624189b04fd79aeab23, type: 3}
    - time: 0.18333334
      value: {fileID: 21300000, guid: 4cbc50ed33bffd24bb063b9888bcd71a, type: 3}
    - time: 0.2
      value: {fileID: 21300000, guid: 4b17632b9d9173b4fb15fa121cc8df03, type: 3}
    - time: 0.21666667
      value: {fileID: 21300000, guid: 1e955e1d1036f644ea188cb797fb4fd2, type: 3}
    - time: 0.23333333
      value: {fileID: 21300000, guid: 77a4a16e73284c74b88efd4ec960eeb8, type: 3}
    - time: 0.25
      value: {fileID: 21300000, guid: 442232aff3d73a84395744281c8c65f2, type: 3}
    - time: 0.26666668
      value: {fileID: 21300000, guid: 5fd0d4e900836264582e679e36588958, type: 3}
    - time: 0.28333336
      value: {fileID: 21300000, guid: e0ab762e99014c94cb9034fc127b1cf0, type: 3}
    - time: 0.30000004
      value: {fileID: 21300000, guid: 7d96903a17e1acc4ea659e8894b455b7, type: 3}
    - time: 0.31666672
      value: {fileID: 21300000, guid: d9f4615027620214386af81bf2d26369, type: 3}
    attribute: m_Sprite
    path: 
    classID: 212
    script: {fileID: 0}
  m_SampleRate: 60
  m_WrapMode: 0
  m_Bounds:
    m_Center: {x: 0, y: 0, z: 0}
    m_Extent: {x: 0, y: 0, z: 0}
  m_ClipBindingConstant:
    genericBindings:
    - serializedVersion: 2
      path: 0
      attribute: 0
      script: {fileID: 0}
      typeID: 212
      customType: 23
      isPPtrCurve: 1
    pptrCurveMapping:
    - {fileID: 21300000, guid: 4dd53f03c79526346b36a05004949f1b, type: 3}
    - {fileID: 21300000, guid: 8597e575ae759de4791733e57dece8eb, type: 3}
    - {fileID: 21300000, guid: 6f4bda72e2cb2c0448e048bee42f0cfb, type: 3}
    - {fileID: 21300000, guid: bcaafcf6360048d45bbd91574ab1bb2e, type: 3}
    - {fileID: 21300000, guid: ca2c2fc34dc8bd9498fa080623d10dd6, type: 3}
    - {fileID: 21300000, guid: 2cece98e8b45c2346a85697e5ae36606, type: 3}
    - {fileID: 21300000, guid: 6057c1f2ab1dde64287e7ee97a70eeb6, type: 3}
    - {fileID: 21300000, guid: e767fb27a6da0df4c9bb7b92fc31789f, type: 3}
    - {fileID: 21300000, guid: f12982908fa982d4aa28b8de75ed0a50, type: 3}
    - {fileID: 21300000, guid: 7c1942d588fecf04093ff3db6bbc5187, type: 3}
    - {fileID: 21300000, guid: 1c298dd1f481f624189b04fd79aeab23, type: 3}
    - {fileID: 21300000, guid: 4cbc50ed33bffd24bb063b9888bcd71a, type: 3}
    - {fileID: 21300000, guid: 4b17632b9d9173b4fb15fa121cc8df03, type: 3}
    - {fileID: 21300000, guid: 1e955e1d1036f644ea188cb797fb4fd2, type: 3}
    - {fileID: 21300000, guid: 77a4a16e73284c74b88efd4ec960eeb8, type: 3}
    - {fileID: 21300000, guid: 442232aff3d73a84395744281c8c65f2, type: 3}
    - {fileID: 21300000, guid: 5fd0d4e900836264582e679e36588958, type: 3}
    - {fileID: 21300000, guid: e0ab762e99014c94cb9034fc127b1cf0, type: 3}
    - {fileID: 21300000, guid: 7d96903a17e1acc4ea659e8894b455b7, type: 3}
    - {fileID: 21300000, guid: d9f4615027620214386af81bf2d26369, type: 3}
  m_AnimationClipSettings:
    serializedVersion: 2
    m_AdditiveReferencePoseClip: {fileID: 0}
    m_AdditiveReferencePoseTime: 0
    m_StartTime: 0
    m_StopTime: 0.3333334
    m_OrientationOffsetY: 0
    m_Level: 0
    m_CycleOffset: 0
    m_HasAdditiveReferencePose: 0
    m_LoopTime: 1
    m_LoopBlend: 0
    m_LoopBlendOrientation: 0
    m_LoopBlendPositionY: 0
    m_LoopBlendPositionXZ: 0
    m_KeepOriginalOrientation: 0
    m_KeepOriginalPositionY: 1
    m_KeepOriginalPositionXZ: 0
    m_HeightFromFeet: 0
    m_Mirror: 0
  m_EditorCurves: []
  m_EulerEditorCurves: []
  m_HasGenericRootTransform: 0
  m_HasMotionFloatCurves: 0
  m_GenerateMotionCurves: 0
  m_Events: []
