%YAML 1.1
%TAG !u! tag:unity3d.com,2011:
--- !u!74 &7400000
AnimationClip:
  m_ObjectHideFlags: 0
  m_CorrespondingSourceObject: {fileID: 0}
  m_PrefabInternal: {fileID: 0}
  m_Name: idle_anim
  serializedVersion: 6
  m_Legacy: 0
  m_Compressed: 0
  m_UseHighQualityCurve: 1
  m_RotationCurves: []
  m_CompressedRotationCurves: []
  m_EulerCurves: []
  m_PositionCurves: []
  m_ScaleCurves: []
  m_FloatCurves: []
  m_PPtrCurves:
  - curve:
    - time: 0
      value: {fileID: 21300000, guid: ca8ed3bf617d7714da428cc02cfc456b, type: 3}
    - time: 0.016666668
      value: {fileID: 21300000, guid: 7e2bab283c7a5d14281a69d1d63a85ba, type: 3}
    - time: 0.033333335
      value: {fileID: 21300000, guid: e2afee53da5f0e542ba4ba4915dafed9, type: 3}
    - time: 0.05
      value: {fileID: 21300000, guid: fc159f9511fa7c94b94214ada9b87b25, type: 3}
    - time: 0.06666667
      value: {fileID: 21300000, guid: a3b27d972fddc7a4e99073d26e73cac9, type: 3}
    - time: 0.083333336
      value: {fileID: 21300000, guid: 2a62bf45b1ed7584486c32a3d0d8adac, type: 3}
    - time: 0.1
      value: {fileID: 21300000, guid: 17a4bd8b080110a4c9568a8cc82c3c8d, type: 3}
    - time: 0.11666667
      value: {fileID: 21300000, guid: c472f8ea51f29884ba98349974691137, type: 3}
    - time: 0.13333334
      value: {fileID: 21300000, guid: ffff300fb569098438634bf8abfd541e, type: 3}
    - time: 0.15
      value: {fileID: 21300000, guid: 7b133a2d082465644a717c3645046643, type: 3}
    - time: 0.16666667
      value: {fileID: 21300000, guid: 11e1d3f538eed734aba0e9545f5edc50, type: 3}
    - time: 0.18333334
      value: {fileID: 21300000, guid: 3fcc16e911f09c64092dca50f8aab4da, type: 3}
    - time: 0.2
      value: {fileID: 21300000, guid: 8a9a449fb95c77749afd3963fe5b19c9, type: 3}
    - time: 0.21666667
      value: {fileID: 21300000, guid: 839a6c91e0299534cb97200a77b89c19, type: 3}
    - time: 0.23333333
      value: {fileID: 21300000, guid: 335742c31a6e02b4e96e97b1e18d219b, type: 3}
    - time: 0.25
      value: {fileID: 21300000, guid: fa8ed4329dd0378419d4f7aff98ade77, type: 3}
    - time: 0.26666668
      value: {fileID: 21300000, guid: be2c93c5ea5ac2844a78a5a59b9a620b, type: 3}
    - time: 0.28333336
      value: {fileID: 21300000, guid: 544551973821581479613a3a38f95ef7, type: 3}
    - time: 0.30000004
      value: {fileID: 21300000, guid: c7d56000762574d48bd0cee30dfbf41b, type: 3}
    - time: 0.31666672
      value: {fileID: 21300000, guid: 017078b42dfb0c24c8ad5d843d281cab, type: 3}
    attribute: m_Sprite
    path: 
    classID: 212
    script: {fileID: 0}
  m_SampleRate: 60
  m_WrapMode: 0
  m_Bounds:
    m_Center: {x: 0, y: 0, z: 0}
    m_Extent: {x: 0, y: 0, z: 0}
  m_ClipBindingConstant:
    genericBindings:
    - serializedVersion: 2
      path: 0
      attribute: 0
      script: {fileID: 0}
      typeID: 212
      customType: 23
      isPPtrCurve: 1
    pptrCurveMapping:
    - {fileID: 21300000, guid: ca8ed3bf617d7714da428cc02cfc456b, type: 3}
    - {fileID: 21300000, guid: 7e2bab283c7a5d14281a69d1d63a85ba, type: 3}
    - {fileID: 21300000, guid: e2afee53da5f0e542ba4ba4915dafed9, type: 3}
    - {fileID: 21300000, guid: fc159f9511fa7c94b94214ada9b87b25, type: 3}
    - {fileID: 21300000, guid: a3b27d972fddc7a4e99073d26e73cac9, type: 3}
    - {fileID: 21300000, guid: 2a62bf45b1ed7584486c32a3d0d8adac, type: 3}
    - {fileID: 21300000, guid: 17a4bd8b080110a4c9568a8cc82c3c8d, type: 3}
    - {fileID: 21300000, guid: c472f8ea51f29884ba98349974691137, type: 3}
    - {fileID: 21300000, guid: ffff300fb569098438634bf8abfd541e, type: 3}
    - {fileID: 21300000, guid: 7b133a2d082465644a717c3645046643, type: 3}
    - {fileID: 21300000, guid: 11e1d3f538eed734aba0e9545f5edc50, type: 3}
    - {fileID: 21300000, guid: 3fcc16e911f09c64092dca50f8aab4da, type: 3}
    - {fileID: 21300000, guid: 8a9a449fb95c77749afd3963fe5b19c9, type: 3}
    - {fileID: 21300000, guid: 839a6c91e0299534cb97200a77b89c19, type: 3}
    - {fileID: 21300000, guid: 335742c31a6e02b4e96e97b1e18d219b, type: 3}
    - {fileID: 21300000, guid: fa8ed4329dd0378419d4f7aff98ade77, type: 3}
    - {fileID: 21300000, guid: be2c93c5ea5ac2844a78a5a59b9a620b, type: 3}
    - {fileID: 21300000, guid: 544551973821581479613a3a38f95ef7, type: 3}
    - {fileID: 21300000, guid: c7d56000762574d48bd0cee30dfbf41b, type: 3}
    - {fileID: 21300000, guid: 017078b42dfb0c24c8ad5d843d281cab, type: 3}
  m_AnimationClipSettings:
    serializedVersion: 2
    m_AdditiveReferencePoseClip: {fileID: 0}
    m_AdditiveReferencePoseTime: 0
    m_StartTime: 0
    m_StopTime: 0.3333334
    m_OrientationOffsetY: 0
    m_Level: 0
    m_CycleOffset: 0
    m_HasAdditiveReferencePose: 0
    m_LoopTime: 1
    m_LoopBlend: 0
    m_LoopBlendOrientation: 0
    m_LoopBlendPositionY: 0
    m_LoopBlendPositionXZ: 0
    m_KeepOriginalOrientation: 0
    m_KeepOriginalPositionY: 1
    m_KeepOriginalPositionXZ: 0
    m_HeightFromFeet: 0
    m_Mirror: 0
  m_EditorCurves: []
  m_EulerEditorCurves: []
  m_HasGenericRootTransform: 0
  m_HasMotionFloatCurves: 0
  m_GenerateMotionCurves: 0
  m_Events: []
